{
  "themes": {
    "industrial": {
      "path": "industrial-theme",
      "backgroudImage": "images/themes/background/theme-1.PNG",
      "image": "images/themes/screen-theme-1.png",
      "zip": "https://github.com/captain-design/free-bootstrap-industrial-theme/archive/master.zip"
    },
    "company": {
      "path": "company-theme",
      "backgroudImage": "images/themes/background/theme-2.jpg",
      "image": "images/themes/screen-theme-2.png",
      "zip": "https://github.com/captain-design/free-bootstrap-service-company-theme/archive/master.zip"
    },
    "blossom": {
      "path": "blossom-theme",
      "backgroudImage": "images/themes/background/theme-3.jpg",
      "image": "images/themes/blossom-theme.png",
      "zip": "https://github.com/captain-design/blossom-theme/archive/master.zip"
    },
    "falcon": {
      "path": "falcon-theme",
      "backgroudImage": "images/themes/background/theme-4.jpg",
      "image": "images/themes/falcon-theme.png",
      "zip": "https://github.com/captain-design/falcon-theme/archive/master.zip"
    },
    "magnus": {
      "path": "magnus-theme",
      "backgroudImage": "images/themes/background/theme-5.jpg",
      "image": "images/themes/magnus-theme.png",
      "zip": "https://github.com/captain-design/magnus-theme/archive/master.zip"
    },
    "starship": {
      "path": "starship-theme",
      "backgroudImage": "images/themes/background/theme-6.jpg",
      "image": "images/themes/starship-theme.png",
      "zip": "https://github.com/captain-design/starship-theme/archive/master.zip"
    },
    "thunderbolt": {
      "path": "thunderbolt-theme",
      "backgroudImage": "images/themes/background/theme-7.jpg",
      "image": "images/themes/thunderbolt-theme.png",
      "zip": "https://github.com/captain-design/thunderbolt-theme/archive/master.zip"
    },
    "supernova": {
      "path": "supernova-theme",
      "backgroudImage": "images/themes/background/theme-8.jpg",
      "image": "images/themes/supernova-theme.png",
      "zip": "https://github.com/captain-design/supernova-theme/archive/master.zip"
    },
    "wave": {
      "path": "wave-theme",
      "backgroudImage": "images/themes/background/theme-9.jpg",
      "image": "images/themes/wave-theme.png",
      "zip": "https://github.com/captain-design/wave-theme/archive/master.zip"
    }
  }
}
